%YAML 1.1
%TAG !u! tag:unity3d.com,2011:
--- !u!1045 &1
EditorBuildSettings:
  m_ObjectHideFlags: 0
  serializedVersion: 2
  m_Scenes:
  - enabled: 1
    path: Assets/Scenes/MainMenu.unity
    guid: 85f45036374c71442838a7ce4f166187
  - enabled: 1
    path: Assets/Scenes/MultiplayerLobby.unity
    guid: df4595b81accbdf4d882e3683d745d4c
  - enabled: 1
    path: Assets/Scenes/GameScene.unity
    guid: 3f2ee240be37235439fe58b2500dc7d3
  m_configObjects: {}
